testing/debug.vcd
$timescale
	1 ps
$end
$scope module Arx $end
$var wire 1 aaa clock $end
$scope module top $end
$var wire 16 aab r1 [15:0] $end
$upscope $end
$scope module top $end
$var wire 16 aac r2 [15:0] $end
$upscope $end
$scope module top $end
$var wire 16 aad r3 [15:0] $end
$upscope $end
$scope module top $end
$var wire 8 aae d1 [7:0] $end
$upscope $end
$scope module top $end
$var wire 8 aaf d2 [7:0] $end
$upscope $end
$scope module top $end
$var wire 8 aag d3 [7:0] $end
$upscope $end
$scope module top $end
$var wire 2 aah state [1:0] $end
$upscope $end
$scope module top $end
$var wire 8 aai o1 [7:0] $end
$upscope $end
$var wire 8 aaj data_in [7:0] $end
$var wire 8 aba data_out [7:0] $end
$scope module top $end
$var wire 16 abb m1 [15:0] $end
$upscope $end
$scope module top $end
$var wire 16 abc m2 [15:0] $end
$upscope $end
$scope module top $end
$var wire 16 abd m3 [15:0] $end
$upscope $end
$scope module top $end
$var wire 16 abe m4 [15:0] $end
$upscope $end
$scope module top $end
$var wire 16 abf m5 [15:0] $end
$upscope $end
$scope module top $end
$var wire 16 abg add1_in_l [15:0] $end
$upscope $end
$scope module top $end
$var wire 16 abh add1_in_r [15:0] $end
$upscope $end
$scope module top $end
$var wire 8 abi add1_out [7:0] $end
$upscope $end
$scope module top $end
$var wire 16 abj add2_in_l [15:0] $end
$upscope $end
$scope module top $end
$var wire 16 aca add2_in_r [15:0] $end
$upscope $end
$scope module top $end
$var wire 8 acb add2_out [7:0] $end
$upscope $end
$scope module top $end
$var wire 8 acc b2 [7:0] $end
$upscope $end
$scope module top $end
$var wire 8 acd b1 [7:0] $end
$upscope $end
$scope module top $end
$var wire 8 ace b0 [7:0] $end
$upscope $end
$scope module top $end
$var wire 8 acf a2 [7:0] $end
$upscope $end
$scope module top $end
$var wire 8 acg a1 [7:0] $end
$upscope $end
$upscope $end
$enddefinitions $end

$dumpvars
1aaa
b0000000000000000 aab
b0000000000000000 aac
b0000000000000000 aad
b00000000 aae
b00000000 aaf
b00000000 aag
b00 aah
b00000000 aai
b00010000 aaj
b00000000 aba
b0000000000000000 abb
b0000000000000000 abc
b0000000000000000 abd
b0000000000000000 abe
b0000000000000000 abf
b0000100000000000 abg
b0000000000000000 abh
b00010000 abi
b0000000000000000 abj
b0000000000000000 aca
b00000000 acb
b00111001 acc
b10011010 acd
b00111001 ace
b11001111 acf
b01000011 acg

#500
0aaa

#1000
1aaa
b0000000000000000 aab
b0000000000000000 aac
b0000000000000000 aad
b00000000 aae
b00000000 aaf
b00000000 aag
b01 aah
b00000000 aai
b00010000 aaj
b00000000 aba
b0000000000000000 abb
b0000000000000000 abc
b0000000000000000 abd
b0000000000000000 abe
b0000000000000000 abf
b0000000000000000 abg
b0000000000000000 abh
b00000000 abi
b0000000000000000 abj
b0000000000000000 aca
b00000000 acb
b00111001 acc
b10011010 acd
b00111001 ace
b11001111 acf
b01000011 acg

#1500
0aaa

#2000
1aaa
b0000000000000000 aab
b0000000000000000 aac
b0000000000000000 aad
b00000000 aae
b00000000 aaf
b00000000 aag
b10 aah
b00000000 aai
b00010000 aaj
b00000000 aba
b0000000000000000 abb
b0000000000000000 abc
b0000000000000000 abd
b0000000000000000 abe
b0000000000000000 abf
b0000000000000000 abg
b0000000000000000 abh
b00000000 abi
b0000000000000000 abj
b0000000000000000 aca
b00000000 acb
b00111001 acc
b10011010 acd
b00111001 ace
b11001111 acf
b01000011 acg

#2500
0aaa

#3000
1aaa
b0000000000000000 aab
b0000000000000000 aac
b0000000000000000 aad
b00000000 aae
b00000000 aaf
b00000000 aag
b11 aah
b00000000 aai
b00010000 aaj
b00000000 aba
b0000000000000000 abb
b0000000000000000 abc
b0000000000000000 abd
b0000000000000000 abe
b0000000000000000 abf
b0000100000000000 abg
b0000000000000000 abh
b00010000 abi
b0000000000000000 abj
b0000000000000000 aca
b00000000 acb
b00111001 acc
b10011010 acd
b00111001 ace
b11001111 acf
b01000011 acg

#3500
0aaa

#4000
1aaa
b0000000000000000 aab
b0000000000000000 aac
b0000100000000000 aad
b00010000 aae
b00000000 aaf
b00000000 aag
b00 aah
b00000000 aai
b00000101 aaj
b00000000 aba
b0000001110010000 abb
b0000010000110000 abc
b1111100110100000 abd
b0000000000000000 abe
b0000000000000000 abf
b0000001010000000 abg
b0000100000000000 abh
b00010101 abi
b0000000000000000 abj
b0000000000000000 aca
b00000000 acb
b00111001 acc
b10011010 acd
b00111001 ace
b11001111 acf
b01000011 acg

#4500
0aaa

#5000
1aaa
b0000001110010000 aab
b0000010000110000 aac
b0000000000000000 aad
b00010000 aae
b00000000 aaf
b00000000 aag
b01 aah
b00000000 aai
b00000101 aaj
b00000000 aba
b0000001110010000 abb
b0000010000110000 abc
b1111100110100000 abd
b0000000000000000 abe
b0000000000000000 abf
b0000010000110000 abg
b0000000000000000 abh
b00001000 abi
b0000000000000000 abj
b0000001110010000 aca
b00000111 acb
b00111001 acc
b10011010 acd
b00111001 ace
b11001111 acf
b01000011 acg

#5500
0aaa

#6000
1aaa
b0000001110010000 aab
b0000010000110000 aac
b0000000000000000 aad
b00010000 aae
b00000000 aaf
b00000000 aag
b10 aah
b00000000 aai
b00000101 aaj
b00000000 aba
b0000001110010000 abb
b0000010000110000 abc
b1111100110100000 abd
b0000000000000000 abe
b0000000000000000 abf
b0000010000110000 abg
b0000000000000000 abh
b00001000 abi
b0000000000000000 abj
b0000001110010000 aca
b00000111 acb
b00111001 acc
b10011010 acd
b00111001 ace
b11001111 acf
b01000011 acg

#6500
0aaa

#7000
1aaa
b1111100110100000 aab
b0000001110000000 aac
b0000010000000000 aad
b00010000 aae
b00000000 aaf
b00000000 aag
b11 aah
b00000111 aai
b00000101 aaj
b00000111 aba
b0000001110010000 abb
b0000010000110000 abc
b1111100110100000 abd
b0000000000000000 abe
b0000000000000000 abf
b0000001010000000 abg
b0000010000000000 abh
b00001101 abi
b0000000000000000 abj
b1111100110100000 aca
b11110011 acb
b00111001 acc
b10011010 acd
b00111001 ace
b11001111 acf
b01000011 acg

#7500
0aaa

#8000
1aaa
b1111100110100000 aab
b1111100110000000 aac
b0000011010000000 aad
b00001101 aae
b00010000 aaf
b11110011 aag
b00 aah
b00000111 aai
b11111110 aaj
b00000111 aba
b0000001011100101 abb
b0000001101100111 abc
b1111101011010010 abd
b1111110011110000 abe
b0000001110010000 abf
b1111111100000000 abg
b0000011010000000 abh
b00001011 abi
b1111100110000000 abj
b1111100110100000 aca
b11100110 acb
b00111001 acc
b10011010 acd
b00111001 ace
b11001111 acf
b01000011 acg

#8500
0aaa

#9000
1aaa
b0000001011100101 aab
b0000001101100111 aac
b1111110011110000 aad
b00001101 aae
b00010000 aaf
b11110011 aag
b01 aah
b00000111 aai
b11111110 aaj
b00000111 aba
b0000001011100101 abb
b0000001101100111 abc
b1111101011010010 abd
b1111110011110000 abe
b0000001110010000 abf
b0000001101100111 abg
b1111110011110000 abh
b00000001 abi
b0000100000000000 abj
b0000001011100101 aca
b00010110 acb
b00111001 acc
b10011010 acd
b00111001 ace
b11001111 acf
b01000011 acg

#9500
0aaa

#10000
1aaa
b0000001011100101 aab
b0000001101100111 aac
b1111110011110000 aad
b00001101 aae
b00010000 aaf
b11110011 aag
b10 aah
b00000111 aai
b11111110 aaj
b00000111 aba
b0000001011100101 abb
b0000001101100111 abc
b1111101011010010 abd
b1111110011110000 abe
b0000001110010000 abf
b0000001101100111 abg
b1111110011110000 abh
b00000001 abi
b1111100110000000 abj
b0000001011100101 aca
b11111001 acb
b00111001 acc
b10011010 acd
b00111001 ace
b11001111 acf
b01000011 acg

#10500
0aaa

#11000
1aaa
b1111101011010010 aab
b1111110010000000 aac
b0000000010000000 aad
b00001101 aae
b00000111 aaf
b11110011 aag
b11 aah
b11111001 aai
b11111110 aaj
b11111001 aba
b0000001011100101 abb
b0000001101100111 abc
b1111101011010010 abd
b1111111010101001 abe
b0000000110001111 abf
b1111111100000000 abg
b0000000010000000 abh
b11111111 abi
b0000001110000000 abj
b1111101011010010 aca
b11111101 acb
b00111001 acc
b10011010 acd
b00111001 ace
b11001111 acf
b01000011 acg

#11500
0aaa

#12000
1aaa
b1111101011010010 aab
b1111111010000000 aac
b1111111110000000 aad
b11111111 aae
b00001101 aaf
b11111101 aag
b00 aah
b11111001 aai
b00001000 aaj
b11111001 aba
b1111111111000111 abb
b1111111110111101 abc
b0000000001100110 abd
b1111110110000011 abe
b0000001011100101 abf
b0000010000000000 abg
b1111111110000000 abh
b00000111 abi
b1111111010000000 abj
b1111101011010010 aca
b11110011 acb
b00111001 acc
b10011010 acd
b00111001 ace
b11001111 acf
b01000011 acg

#12500
0aaa

#13000
1aaa
b1111111111000111 aab
b1111111110111101 aac
b1111110110000011 aad
b11111111 aae
b00001101 aaf
b11111101 aag
b01 aah
b11111001 aai
b00001000 aaj
b11111001 aba
b1111111111000111 abb
b1111111110111101 abc
b0000000001100110 abd
b1111110110000011 abe
b0000001011100101 abf
b1111111110111101 abg
b1111110110000011 abh
b11111011 abi
b0000011010000000 abj
b1111111111000111 aca
b00001101 acb
b00111001 acc
b10011010 acd
b00111001 ace
b11001111 acf
b01000011 acg

#13500
0aaa

#14000
1aaa
b1111111111000111 aab
b1111111110111101 aac
b1111110110000011 aad
b11111111 aae
b00001101 aaf
b11111101 aag
b10 aah
b11111001 aai
b00001000 aaj
b11111001 aba
b1111111111000111 abb
b1111111110111101 abc
b0000000001100110 abd
b1111110110000011 abe
b0000001011100101 abf
b1111111110111101 abg
b1111110110000011 abh
b11111011 abi
b1111111010000000 abj
b1111111111000111 aca
b11111101 acb
b00111001 acc
b10011010 acd
b00111001 ace
b11001111 acf
b01000011 acg

#14500
0aaa

#15000
1aaa
b0000000001100110 aab
b1111111010000000 aac
b1111110110000000 aad
b11111111 aae
b00000110 aaf
b11111101 aag
b11 aah
b11111101 aai
b00001000 aaj
b11111101 aba
b1111111111000111 abb
b1111111110111101 abc
b0000000001100110 abd
b1111111011011010 abe
b0000000101010110 abf
b0000010000000000 abg
b1111110110000000 abh
b00000011 abi
b0000001100000000 abj
b0000000001100110 aca
b00000111 acb
b00111001 acc
b10011010 acd
b00111001 ace
b11001111 acf
b01000011 acg

#15500
0aaa

#16000
1aaa
b0000000001100110 aab
b0000001110000000 aac
b0000000110000000 aad
b00000011 aae
b11111111 aaf
b00000111 aag
b00 aah
b11111101 aai
b00000000 aaj
b11111101 aba
b0000000010101011 abb
b0000000011001001 abc
b1111111011001110 abd
b0000000000110001 abe
b1111111111000111 abf
b0000000000000000 abg
b0000000110000000 abh
b00000011 abi
b0000001110000000 abj
b0000000001100110 aca
b00001000 acb
b00111001 acc
b10011010 acd
b00111001 ace
b11001111 acf
b01000011 acg

#16500
0aaa

#17000
1aaa
b0000000010101011 aab
b0000000011001001 aac
b0000000000110001 aad
b00000011 aae
b11111111 aaf
b00000111 aag
b01 aah
b11111101 aai
b00000000 aaj
b11111101 aba
b0000000010101011 abb
b0000000011001001 abc
b1111111011001110 abd
b0000000000110001 abe
b1111111111000111 abf
b0000000011001001 abg
b0000000000110001 abh
b00000010 abi
b1111111110000000 abj
b0000000010101011 aca
b00000000 acb
b00111001 acc
b10011010 acd
b00111001 ace
b11001111 acf
b01000011 acg

#17500
0aaa

#18000
1aaa
b0000000010101011 aab
b0000000011001001 aac
b0000000000110001 aad
b00000011 aae
b11111111 aaf
b00000111 aag
b10 aah
b11111101 aai
b00000000 aaj
b11111101 aba
b0000000010101011 abb
b0000000011001001 abc
b1111111011001110 abd
b0000000000110001 abe
b1111111111000111 abf
b0000000011001001 abg
b0000000000110001 abh
b00000010 abi
b0000001110000000 abj
b0000000010101011 aca
b00001000 acb
b00111001 acc
b10011010 acd
b00111001 ace
b11001111 acf
b01000011 acg

#18500
0aaa

#19000
1aaa
b1111111011001110 aab
b0000010000000000 aac
b0000000100000000 aad
b00000011 aae
b00000000 aaf
b00000111 aag
b11 aah
b00001000 aai
b00000000 aaj
b00001000 aba
b0000000010101011 abb
b0000000011001001 abc
b1111111011001110 abd
b0000000000000000 abe
b0000000000000000 abf
b0000000000000000 abg
b0000000100000000 abh
b00000010 abi
b0000000000000000 abj
b1111111011001110 aca
b11111110 acb
b00111001 acc
b10011010 acd
b00111001 ace
b11001111 acf
b01000011 acg

#19500
0aaa

#20000
1aaa
b1111111011001110 aab
b1111111100000000 aac
b0000000100000000 aad
b00000010 aae
b00000011 aaf
b11111110 aag
b00 aah
b00001000 aai
b11110010 aaj
b00001000 aba
b0000000001110010 abb
b0000000010000110 abc
b1111111100110100 abd
b1111111101101101 abe
b0000000010101011 abf
b1111100100000000 abg
b0000000100000000 abh
b11110100 abi
b1111111100000000 abj
b1111111011001110 aca
b11111100 acb
b00111001 acc
b10011010 acd
b00111001 ace
b11001111 acf
b01000011 acg

#20500
0aaa

#21000
1aaa
b0000000001110010 aab
b0000000010000110 aac
b1111111101101101 aad
b00000010 aae
b00000011 aaf
b11111110 aag
b01 aah
b00001000 aai
b11110010 aaj
b00001000 aba
b0000000001110010 abb
b0000000010000110 abc
b1111111100110100 abd
b1111111101101101 abe
b0000000010101011 abf
b0000000010000110 abg
b1111111101101101 abh
b00000000 abi
b0000000110000000 abj
b0000000001110010 aca
b00000100 acb
b00111001 acc
b10011010 acd
b00111001 ace
b11001111 acf
b01000011 acg

#21500
0aaa

#22000
1aaa
b0000000001110010 aab
b0000000010000110 aac
b1111111101101101 aad
b00000010 aae
b00000011 aaf
b11111110 aag
b10 aah
b00001000 aai
b11110010 aaj
b00001000 aba
b0000000001110010 abb
b0000000010000110 abc
b1111111100110100 abd
b1111111101101101 abe
b0000000010101011 abf
b0000000010000110 abg
b1111111101101101 abh
b00000000 abi
b1111111100000000 abj
b0000000001110010 aca
b11111111 acb
b00111001 acc
b10011010 acd
b00111001 ace
b11001111 acf
b01000011 acg

#22500
0aaa

#23000
1aaa
b1111111100110100 aab
b1111111110000000 aac
b0000000000000000 aad
b00000010 aae
b00000001 aaf
b11111110 aag
b11 aah
b11111111 aai
b11110010 aaj
b11111111 aba
b0000000001110010 abb
b0000000010000110 abc
b1111111100110100 abd
b1111111111001111 abe
b0000000000111001 abf
b1111100100000000 abg
b0000000000000000 abh
b11110010 abi
b0000000010000000 abj
b1111111100110100 aca
b11111111 acb
b00111001 acc
b10011010 acd
b00111001 ace
b11001111 acf
b01000011 acg

#23500
0aaa

#24000
1aaa
b1111111100110100 aab
b1111111110000000 aac
b1111100100000000 aad
b11110010 aae
b00000010 aaf
b11111111 aag
b00 aah
b11111111 aai
b11111011 aaj
b11111111 aba
b1111110011100010 abb
b1111110001010110 abc
b0000010110010100 abd
b1111111110011110 abe
b0000000001110010 abf
b1111110110000000 abg
b1111100100000000 abh
b11101101 abi
b1111111110000000 abj
b1111111100110100 aca
b11111101 acb
b00111001 acc
b10011010 acd
b00111001 ace
b11001111 acf
b01000011 acg

#24500
0aaa

#25000
1aaa
b1111110011100010 aab
b1111110001010110 aac
b1111111110011110 aad
b11110010 aae
b00000010 aaf
b11111111 aag
b01 aah
b11111111 aai
b11111011 aaj
b11111111 aba
b1111110011100010 abb
b1111110001010110 abc
b0000010110010100 abd
b1111111110011110 abe
b0000000001110010 abf
b1111110001010110 abg
b1111111110011110 abh
b11111000 abi
b0000000100000000 abj
b1111110011100010 aca
b11111100 acb
b00111001 acc
b10011010 acd
b00111001 ace
b11001111 acf
b01000011 acg

#25500
0aaa

#26000
1aaa
b1111110011100010 aab
b1111110001010110 aac
b1111111110011110 aad
b11110010 aae
b00000010 aaf
b11111111 aag
b10 aah
b11111111 aai
b11111011 aaj
b11111111 aba
b1111110011100010 abb
b1111110001010110 abc
b0000010110010100 abd
b1111111110011110 abe
b0000000001110010 abf
b1111110001010110 abg
b1111111110011110 abh
b11111000 abi
b1111111110000000 abj
b1111110011100010 aca
b11111001 acb
b00111001 acc
b10011010 acd
b00111001 ace
b11001111 acf
b01000011 acg

#26500
0aaa

#27000
1aaa
b0000010110010100 aab
b1111110010000000 aac
b1111110000000000 aad
b11110010 aae
b00000001 aaf
b11111111 aag
b11 aah
b11111001 aai
b11111011 aaj
b11111001 aba
b1111110011100010 abb
b1111110001010110 abc
b0000010110010100 abd
b1111111111001111 abe
b0000000000111001 abf
b1111110110000000 abg
b1111110000000000 abh
b11110011 abi
b0000000010000000 abj
b0000010110010100 aca
b00001100 acb
b00111001 acc
b10011010 acd
b00111001 ace
b11001111 acf
b01000011 acg

#27500
0aaa

#28000
1aaa
b0000010110010100 aab
b0000011000000000 aac
b1111100110000000 aad
b11110011 aae
b11110010 aaf
b00001100 aag
b00 aah
b11111001 aai
b11111111 aaj
b11111001 aba
b1111110100011011 abb
b1111110010011001 abc
b0000010100101110 abd
b0000001010101110 abe
b1111110011100010 abf
b1111111110000000 abg
b1111100110000000 abh
b11110010 abi
b0000011000000000 abj
b0000010110010100 aca
b00010111 acb
b00111001 acc
b10011010 acd
b00111001 ace
b11001111 acf
b01000011 acg

#28500
0aaa

#29000
1aaa
b1111110100011011 aab
b1111110010011001 aac
b0000001010101110 aad
b11110011 aae
b11110010 aaf
b00001100 aag
b01 aah
b11111001 aai
b11111111 aaj
b11111001 aba
b1111110100011011 abb
b1111110010011001 abc
b0000010100101110 abd
b0000001010101110 abe
b1111110011100010 abf
b1111110010011001 abg
b0000001010101110 abh
b11111111 abi
b1111100100000000 abj
b1111110100011011 aca
b11101100 acb
b00111001 acc
b10011010 acd
b00111001 ace
b11001111 acf
b01000011 acg

#29500
0aaa

#30000
1aaa
b1111110100011011 aab
b1111110010011001 aac
b0000001010101110 aad
b11110011 aae
b11110010 aaf
b00001100 aag
b10 aah
b11111001 aai
b11111111 aaj
b11111001 aba
b1111110100011011 abb
b1111110010011001 abc
b0000010100101110 abd
b0000001010101110 abe
b1111110011100010 abf
b1111110010011001 abg
b0000001010101110 abh
b11111111 abi
b0000011000000000 abj
b1111110100011011 aca
b00000110 acb
b00111001 acc
b10011010 acd
b00111001 ace
b11001111 acf
b01000011 acg

#30500
0aaa

#31000
1aaa
b0000010100101110 aab
b0000001100000000 aac
b1111111110000000 aad
b11110011 aae
b11111010 aaf
b00001100 aag
b11 aah
b00000110 aai
b11111111 aaj
b00000110 aba
b1111110100011011 abb
b1111110010011001 abc
b0000010100101110 abd
b0000000100100110 abe
b1111111010101010 abf
b1111111110000000 abg
b1111111110000000 abh
b11111110 abi
b1111110100000000 abj
b0000010100101110 aca
b00000100 acb
b00111001 acc
b10011010 acd
b00111001 ace
b11001111 acf
b01000011 acg

#31500
0aaa

#32000
1aaa
b0000010100101110 aab
b0000001000000000 aac
b1111111100000000 aad
b11111110 aae
b11110011 aaf
b00000100 aag
b00 aah
b00000110 aai
b11110011 aaj
b00000110 aba
b1111111110001110 abb
b1111111101111010 abc
b0000000011001100 abd
b0000001001111101 abe
b1111110100011011 abf
b1111100110000000 abg
b1111111100000000 abh
b11110001 abi
b0000001000000000 abj
b0000010100101110 aca
b00001110 acb
b00111001 acc
b10011010 acd
b00111001 ace
b11001111 acf
b01000011 acg

#32500
0aaa

#33000
1aaa
b1111111110001110 aab
b1111111101111010 aac
b0000001001111101 aad
b11111110 aae
b11110011 aaf
b00000100 aag
b01 aah
b00000110 aai
b11110011 aaj
b00000110 aba
b1111111110001110 abb
b1111111101111010 abc
b0000000011001100 abd
b0000001001111101 abe
b1111110100011011 abf
b1111111101111010 abg
b0000001001111101 abh
b00000100 abi
b1111100110000000 abj
b1111111110001110 aca
b11110010 acb
b00111001 acc
b10011010 acd
b00111001 ace
b11001111 acf
b01000011 acg

#33500
0aaa

#34000
1aaa
b1111111110001110 aab
b1111111101111010 aac
b0000001001111101 aad
b11111110 aae
b11110011 aaf
b00000100 aag
b10 aah
b00000110 aai
b11110011 aaj
b00000110 aba
b1111111110001110 abb
b1111111101111010 abc
b0000000011001100 abd
b0000001001111101 abe
b1111110100011011 abf
b1111111101111010 abg
b0000001001111101 abh
b00000100 abi
b0000001000000000 abj
b1111111110001110 aca
b00000011 acb
b00111001 acc
b10011010 acd
b00111001 ace
b11001111 acf
b01000011 acg

#34500
0aaa

#35000
1aaa
b0000000011001100 aab
b0000000110000000 aac
b0000001000000000 aad
b11111110 aae
b11111010 aaf
b00000100 aag
b11 aah
b00000011 aai
b11110011 aaj
b00000011 aba
b1111111110001110 abb
b1111111101111010 abc
b0000000011001100 abd
b0000000100100110 abe
b1111111010101010 abf
b1111100110000000 abg
b0000001000000000 abh
b11110111 abi
b1111110100000000 abj
b0000000011001100 aca
b11111100 acb
b00111001 acc
b10011010 acd
b00111001 ace
b11001111 acf
b01000011 acg

#35500
0aaa

#36000
1aaa
b0000000011001100 aab
b1111111000000000 aac
b1111101110000000 aad
b11110111 aae
b11111110 aaf
b11111100 aag
b00 aah
b00000011 aai
b11111010 aaj
b00000011 aba
b1111110111111111 abb
b1111110110100101 abc
b0000001110010110 abd
b0000000001100010 abe
b1111111110001110 abf
b1111110100000000 abg
b1111101110000000 abh
b11110001 abi
b1111111000000000 abj
b0000000011001100 aca
b11111110 acb
b00111001 acc
b10011010 acd
b00111001 ace
b11001111 acf
b01000011 acg

#36500
0aaa

#37000
1aaa
b1111110111111111 aab
b1111110110100101 aac
b0000000001100010 aad
b11110111 aae
b11111110 aaf
b11111100 aag
b01 aah
b00000011 aai
b11111010 aaj
b00000011 aba
b1111110111111111 abb
b1111110110100101 abc
b0000001110010110 abd
b0000000001100010 abe
b1111111110001110 abf
b1111110110100101 abg
b0000000001100010 abh
b11111100 abi
b1111111100000000 abj
b1111110111111111 aca
b11111010 acb
b00111001 acc
b10011010 acd
b00111001 ace
b11001111 acf
b01000011 acg

#37500
0aaa

#38000
1aaa
b1111110111111111 aab
b1111110110100101 aac
b0000000001100010 aad
b11110111 aae
b11111110 aaf
b11111100 aag
b10 aah
b00000011 aai
b11111010 aaj
b00000011 aba
b1111110111111111 abb
b1111110110100101 abc
b0000001110010110 abd
b0000000001100010 abe
b1111111110001110 abf
b1111110110100101 abg
b0000000001100010 abh
b11111100 abi
b1111111000000000 abj
b1111110111111111 aca
b11111000 acb
b00111001 acc
b10011010 acd
b00111001 ace
b11001111 acf
b01000011 acg

#38500
0aaa

#39000
1aaa
b0000001110010110 aab
b1111110000000000 aac
b1111111000000000 aad
b11110111 aae
b11111111 aaf
b11111100 aag
b11 aah
b11111000 aai
b11111010 aaj
b11111000 aba
b1111110111111111 abb
b1111110110100101 abc
b0000001110010110 abd
b0000000000110001 abe
b1111111111000111 abf
b1111110100000000 abg
b1111111000000000 abh
b11110110 abi
b1111111110000000 abj
b0000001110010110 aca
b00000110 acb
b00111001 acc
b10011010 acd
b00111001 ace
b11001111 acf
b01000011 acg

#39500
0aaa

#40000
1aaa
b0000001110010110 aab
b0000001100000000 aac
b1111101100000000 aad
b11110110 aae
b11110111 aaf
b00000110 aag
b00 aah
b11111000 aai
b00001000 aaj
b11111000 aba
b1111110111000110 abb
b1111110101100010 abc
b0000001111111100 abd
b0000000110111001 abe
b1111110111111111 abf
b0000010000000000 abg
b1111101100000000 abh
b11111110 abi
b0000001100000000 abj
b0000001110010110 aca
b00001101 acb
b00111001 acc
b10011010 acd
b00111001 ace
b11001111 acf
b01000011 acg

#40500
0aaa

#41000
1aaa
b1111110111000110 aab
b1111110101100010 aac
b0000000110111001 aad
b11110110 aae
b11110111 aaf
b00000110 aag
b01 aah
b11111000 aai
b00001000 aaj
b11111000 aba
b1111110111000110 abb
b1111110101100010 abc
b0000001111111100 abd
b0000000110111001 abe
b1111110111111111 abf
b1111110101100010 abg
b0000000110111001 abh
b11111110 abi
b1111101110000000 abj
b1111110111000110 aca
b11110011 acb
b00111001 acc
b10011010 acd
b00111001 ace
b11001111 acf
b01000011 acg

#41500
0aaa

#42000
1aaa
b1111110111000110 aab
b1111110101100010 aac
b0000000110111001 aad
b11110110 aae
b11110111 aaf
b00000110 aag
b10 aah
b11111000 aai
b00001000 aaj
b11111000 aba
b1111110111000110 abb
b1111110101100010 abc
b0000001111111100 abd
b0000000110111001 abe
b1111110111111111 abf
b1111110101100010 abg
b0000000110111001 abh
b11111110 abi
b0000001100000000 abj
b1111110111000110 aca
b00000010 acb
b00111001 acc
b10011010 acd
b00111001 ace
b11001111 acf
b01000011 acg

#42500
0aaa

#43000
1aaa
b0000001111111100 aab
b0000000100000000 aac
b1111111100000000 aad
b11110110 aae
b11111100 aaf
b00000110 aag
b11 aah
b00000010 aai
b00001000 aaj
b00000010 aba
b1111110111000110 abb
b1111110101100010 abc
b0000001111111100 abd
b0000000011000100 abe
b1111111100011100 abf
b0000010000000000 abg
b1111111100000000 abh
b00000110 abi
b1111111000000000 abj
b0000001111111100 aca
b00000100 acb
b00111001 acc
b10011010 acd
b00111001 ace
b11001111 acf
b01000011 acg

#43500
0aaa

#44000
1aaa
b0000001111111100 aab
b0000001000000000 aac
b0000001100000000 aad
b00000110 aae
b11110110 aaf
b00000100 aag
b00 aah
b00000010 aai
b00000001 aaj
b00000010 aba
b0000000101010110 abb
b0000000110010010 abc
b1111110110011100 abd
b0000000111101010 abe
b1111110111000110 abf
b0000000010000000 abg
b0000001100000000 abh
b00000111 abi
b0000001000000000 abj
b0000001111111100 aca
b00001100 acb
b00111001 acc
b10011010 acd
b00111001 ace
b11001111 acf
b01000011 acg

#44500
0aaa

#45000
1aaa
b0000000101010110 aab
b0000000110010010 aac
b0000000111101010 aad
b00000110 aae
b11110110 aaf
b00000100 aag
b01 aah
b00000010 aai
b00000001 aaj
b00000010 aba
b0000000101010110 abb
b0000000110010010 abc
b1111110110011100 abd
b0000000111101010 abe
b1111110111000110 abf
b0000000110010010 abg
b0000000111101010 abh
b00000111 abi
b1111101100000000 abj
b0000000101010110 aca
b11111001 acb
b00111001 acc
b10011010 acd
b00111001 ace
b11001111 acf
b01000011 acg

#45500
0aaa

#46000
1aaa
b0000000101010110 aab
b0000000110010010 aac
b0000000111101010 aad
b00000110 aae
b11110110 aaf
b00000100 aag
b10 aah
b00000010 aai
b00000001 aaj
b00000010 aba
b0000000101010110 abb
b0000000110010010 abc
b1111110110011100 abd
b0000000111101010 abe
b1111110111000110 abf
b0000000110010010 abg
b0000000111101010 abh
b00000111 abi
b0000001000000000 abj
b0000000101010110 aca
b00000111 acb
b00111001 acc
b10011010 acd
b00111001 ace
b11001111 acf
b01000011 acg

#46500
0aaa

#47000
1aaa
b1111110110011100 aab
b0000001110000000 aac
b0000001110000000 aad
b00000110 aae
b11111100 aaf
b00000100 aag
b11 aah
b00000111 aai
b00000001 aaj
b00000111 aba
b0000000101010110 abb
b0000000110010010 abc
b1111110110011100 abd
b0000000011000100 abe
b1111111100011100 abf
b0000000010000000 abg
b0000001110000000 abh
b00001000 abi
b1111111000000000 abj
b1111110110011100 aca
b11110111 acb
b00111001 acc
b10011010 acd
b00111001 ace
b11001111 acf
b01000011 acg

#47500
0aaa

#48000
1aaa
b1111110110011100 aab
b1111101110000000 aac
b0000010000000000 aad
b00001000 aae
b00000110 aaf
b11110111 aag
b00 aah
b00000111 aai
b00000000 aaj
b00000111 aba
b0000000111001000 abb
b0000001000011000 abc
b1111110011010000 abd
b1111111011011010 abe
b0000000101010110 abf
b0000000000000000 abg
b0000010000000000 abh
b00001000 abi
b1111101110000000 abj
b1111110110011100 aca
b11110010 acb
b00111001 acc
b10011010 acd
b00111001 ace
b11001111 acf
b01000011 acg

#48500
0aaa

#49000
1aaa
b0000000111001000 aab
b0000001000011000 aac
b1111111011011010 aad
b00001000 aae
b00000110 aaf
b11110111 aag
b01 aah
b00000111 aai
b00000000 aaj
b00000111 aba
b0000000111001000 abb
b0000001000011000 abc
b1111110011010000 abd
b1111111011011010 abe
b0000000101010110 abf
b0000001000011000 abg
b1111111011011010 abh
b00000010 abi
b0000001100000000 abj
b0000000111001000 aca
b00001010 acb
b00111001 acc
b10011010 acd
b00111001 ace
b11001111 acf
b01000011 acg

#49500
0aaa

#50000
1aaa
b0000000111001000 aab
b0000001000011000 aac
b1111111011011010 aad
b00001000 aae
b00000110 aaf
b11110111 aag
b10 aah
b00000111 aai
b00000000 aaj
b00000111 aba
b0000000111001000 abb
b0000001000011000 abc
b1111110011010000 abd
b1111111011011010 abe
b0000000101010110 abf
b0000001000011000 abg
b1111111011011010 abh
b00000010 abi
b1111101110000000 abj
b0000000111001000 aca
b11111011 acb
b00111001 acc
b10011010 acd
b00111001 ace
b11001111 acf
b01000011 acg

#50500
0aaa

#51000
1aaa
b1111110011010000 aab
b1111110110000000 aac
b0000000100000000 aad
b00001000 aae
b00000011 aaf
b11110111 aag
b11 aah
b11111011 aai
b00000000 aaj
b11111011 aba
b0000000111001000 abb
b0000001000011000 abc
b1111110011010000 abd
b1111111101101101 abe
b0000000010101011 abf
b0000000000000000 abg
b0000000100000000 abh
b00000010 abi
b0000000110000000 abj
b1111110011010000 aca
b11111101 acb
b00111001 acc
b10011010 acd
b00111001 ace
b11001111 acf
b01000011 acg

#51500
0aaa

#52000
1aaa
b1111110011010000 aab
b1111111010000000 aac
b0000000100000000 aad
b00000010 aae
b00001000 aaf
b11111101 aag
b00 aah
b11111011 aai
b00001110 aaj
b11111011 aba
b0000000001110010 abb
b0000000010000110 abc
b1111111100110100 abd
b1111111001111000 abe
b0000000111001000 abf
b0000011100000000 abg
b0000000100000000 abh
b00010000 abi
b1111111010000000 abj
b1111110011010000 aca
b11110111 acb
b00111001 acc
b10011010 acd
b00111001 ace
b11001111 acf
b01000011 acg

#52500
0aaa

