testing/wait.vcd
$timescale
	1 ps
$end
$scope module Arx $end
$var wire 1 aaa clock $end
$scope module top $end
$var wire 16 aab storage:0 [15:0] $end
$upscope $end
$scope module top $end
$var wire 16 aac storage:1 [15:0] $end
$upscope $end
$scope module top $end
$var wire 16 aad storage:2 [15:0] $end
$upscope $end
$scope module top $end
$var wire 16 aae storage:3 [15:0] $end
$upscope $end
$scope module top $end
$var wire 16 aaf storage:4 [15:0] $end
$upscope $end
$scope module top $end
$var wire 16 aag storage:5 [15:0] $end
$upscope $end
$var wire 16 aah data_in [15:0] $end
$var wire 16 aai data_out [15:0] $end
$scope module top $end
$var wire 16 aaj miku [15:0] $end
$upscope $end
$upscope $end
$enddefinitions $end

$dumpvars
1aaa
b0000000000000000 aab
b0000000000000000 aac
b0000000000000000 aad
b0000000000000000 aae
b0000000000000000 aaf
b0000000000000000 aag
b0000000000000000 aah
b0000000000000000 aai
b0000000000000000 aaj

#500
0aaa

#1000
1aaa
b0000000000000000 aab
b0000000000000000 aac
b0000000000000000 aad
b0000000000000000 aae
b0000000000000000 aaf
b0000000000000000 aag
b0000000000000001 aah
b0000000000000001 aai
b0000000000000001 aaj

#1500
0aaa

#2000
1aaa
b0000000000000000 aab
b0000000000000000 aac
b0000000000000000 aad
b0000000000000000 aae
b0000000000000000 aaf
b0000000000000000 aag
b0000000000000010 aah
b0000000000000010 aai
b0000000000000010 aaj

#2500
0aaa

#3000
1aaa
b0000000000000000 aab
b0000000000000000 aac
b0000000000000000 aad
b0000000000000000 aae
b0000000000000000 aaf
b0000000000000000 aag
b0000000000000011 aah
b0000000000000011 aai
b0000000000000011 aaj

#3500
0aaa

#4000
1aaa
b0000000000000000 aab
b0000000000000000 aac
b0000000000000000 aad
b0000000000000000 aae
b0000000000000000 aaf
b0000000000000000 aag
b0000000000000100 aah
b0000000000000100 aai
b0000000000000100 aaj

#4500
0aaa

#5000
1aaa
b0000000000000000 aab
b0000000000000000 aac
b0000000000000000 aad
b0000000000000000 aae
b0000000000000000 aaf
b0000000000000000 aag
b0000000000000101 aah
b0000000000000101 aai
b0000000000000101 aaj

#5500
0aaa

#6000
1aaa
b0000000000000000 aab
b0000000000000000 aac
b0000000000000000 aad
b0000000000000000 aae
b0000000000000000 aaf
b0000000000000000 aag
b0000000000000110 aah
b0000000000000110 aai
b0000000000000110 aaj

#6500
0aaa

#7000
1aaa
b0000000000000000 aab
b0000000000000000 aac
b0000000000000000 aad
b0000000000000000 aae
b0000000000000000 aaf
b0000000000000000 aag
b0000000000000111 aah
b0000000000000111 aai
b0000000000000111 aaj

#7500
0aaa

#8000
1aaa
b0000000000000000 aab
b0000000000000000 aac
b0000000000000000 aad
b0000000000000000 aae
b0000000000000000 aaf
b0000000000000000 aag
b0000000000001000 aah
b0000000000001000 aai
b0000000000001000 aaj

#8500
0aaa

#9000
1aaa
b0000000000000000 aab
b0000000000000000 aac
b0000000000000000 aad
b0000000000000000 aae
b0000000000000000 aaf
b0000000000000000 aag
b0000000000001001 aah
b0000000000001001 aai
b0000000000001001 aaj

#9500
0aaa

#10000
1aaa
b0000000000000000 aab
b0000000000000000 aac
b0000000000000000 aad
b0000000000000000 aae
b0000000000000000 aaf
b0000000000000000 aag
b0000000000001010 aah
b0000000000001010 aai
b0000000000001010 aaj

#10500
0aaa

#11000
1aaa
b0000000000000000 aab
b0000000000000000 aac
b0000000000000000 aad
b0000000000000000 aae
b0000000000000000 aaf
b0000000000000000 aag
b0000000000001011 aah
b0000000000001011 aai
b0000000000001011 aaj

#11500
0aaa

#12000
1aaa
b0000000000000000 aab
b0000000000000000 aac
b0000000000000000 aad
b0000000000000000 aae
b0000000000000000 aaf
b0000000000000000 aag
b0000000000001100 aah
b0000000000001100 aai
b0000000000001100 aaj

#12500
0aaa

#13000
1aaa
b0000000000000000 aab
b0000000000000000 aac
b0000000000000000 aad
b0000000000000000 aae
b0000000000000000 aaf
b0000000000000000 aag
b0000000000001101 aah
b0000000000001101 aai
b0000000000001101 aaj

#13500
0aaa

#14000
1aaa
b0000000000000000 aab
b0000000000000000 aac
b0000000000000000 aad
b0000000000000000 aae
b0000000000000000 aaf
b0000000000000000 aag
b0000000000001110 aah
b0000000000001110 aai
b0000000000001110 aaj

#14500
0aaa

#15000
1aaa
b0000000000000000 aab
b0000000000000000 aac
b0000000000000000 aad
b0000000000000000 aae
b0000000000000000 aaf
b0000000000000000 aag
b0000000000001111 aah
b0000000000001111 aai
b0000000000001111 aaj

#15500
0aaa

#16000
1aaa
b0000000000000000 aab
b0000000000000000 aac
b0000000000000000 aad
b0000000000000000 aae
b0000000000000000 aaf
b0000000000000000 aag
b0000000000010000 aah
b0000000000010000 aai
b0000000000010000 aaj

#16500
0aaa

#17000
1aaa
b0000000000000000 aab
b0000000000000000 aac
b0000000000000000 aad
b0000000000000000 aae
b0000000000000000 aaf
b0000000000000000 aag
b0000000000010001 aah
b0000000000010001 aai
b0000000000010001 aaj

#17500
0aaa

#18000
1aaa
b0000000000000000 aab
b0000000000000000 aac
b0000000000000000 aad
b0000000000000000 aae
b0000000000000000 aaf
b0000000000000000 aag
b0000000000010010 aah
b0000000000010010 aai
b0000000000010010 aaj

#18500
0aaa

#19000
1aaa
b0000000000000000 aab
b0000000000000000 aac
b0000000000000000 aad
b0000000000000000 aae
b0000000000000000 aaf
b0000000000000000 aag
b0000000000010011 aah
b0000000000010011 aai
b0000000000010011 aaj

#19500
0aaa

#20000
1aaa
b0000000000000000 aab
b0000000000000000 aac
b0000000000000000 aad
b0000000000000000 aae
b0000000000000000 aaf
b0000000000000000 aag
b0000000000010100 aah
b0000000000010100 aai
b0000000000010100 aaj

#20500
0aaa

#21000
1aaa
b0000000000000000 aab
b0000000000000000 aac
b0000000000000000 aad
b0000000000000000 aae
b0000000000000000 aaf
b0000000000000000 aag
b0000000000010101 aah
b0000000000010101 aai
b0000000000010101 aaj

#21500
0aaa

#22000
1aaa
b0000000000000000 aab
b0000000000000000 aac
b0000000000000000 aad
b0000000000000000 aae
b0000000000000000 aaf
b0000000000000000 aag
b0000000000010110 aah
b0000000000010110 aai
b0000000000010110 aaj

#22500
0aaa

#23000
1aaa
b0000000000000000 aab
b0000000000000000 aac
b0000000000000000 aad
b0000000000000000 aae
b0000000000000000 aaf
b0000000000000000 aag
b0000000000010111 aah
b0000000000010111 aai
b0000000000010111 aaj

#23500
0aaa

#24000
1aaa
b0000000000000000 aab
b0000000000000000 aac
b0000000000000000 aad
b0000000000000000 aae
b0000000000000000 aaf
b0000000000000000 aag
b0000000000011000 aah
b0000000000011000 aai
b0000000000011000 aaj

#24500
0aaa

#25000
1aaa
b0000000000000000 aab
b0000000000000000 aac
b0000000000000000 aad
b0000000000000000 aae
b0000000000000000 aaf
b0000000000000000 aag
b0000000000011001 aah
b0000000000011001 aai
b0000000000011001 aaj

#25500
0aaa

#26000
1aaa
b0000000000000000 aab
b0000000000000000 aac
b0000000000000000 aad
b0000000000000000 aae
b0000000000000000 aaf
b0000000000000000 aag
b0000000000011010 aah
b0000000000011010 aai
b0000000000011010 aaj

#26500
0aaa

#27000
1aaa
b0000000000000000 aab
b0000000000000000 aac
b0000000000000000 aad
b0000000000000000 aae
b0000000000000000 aaf
b0000000000000000 aag
b0000000000011011 aah
b0000000000011011 aai
b0000000000011011 aaj

#27500
0aaa

#28000
1aaa
b0000000000000000 aab
b0000000000000000 aac
b0000000000000000 aad
b0000000000000000 aae
b0000000000000000 aaf
b0000000000000000 aag
b0000000000011100 aah
b0000000000011100 aai
b0000000000011100 aaj

#28500
0aaa

#29000
1aaa
b0000000000000000 aab
b0000000000000000 aac
b0000000000000000 aad
b0000000000000000 aae
b0000000000000000 aaf
b0000000000000000 aag
b0000000000011101 aah
b0000000000011101 aai
b0000000000011101 aaj

